module github.com/ok-john/recurse

go 1.17

require github.com/ca-std/lib v0.4.12

require (
	filippo.io/age v1.0.0-rc.3 // indirect
	github.com/cespare/xxhash/v2 v2.1.1 // indirect
	github.com/dgryski/go-rendezvous v0.0.0-20200823014737-9f7001d12a5f // indirect
	github.com/go-redis/redis/v8 v8.11.3 // indirect
	github.com/golang/protobuf v1.5.2 // indirect
	github.com/zeebo/blake3 v0.2.0 // indirect
	golang.org/x/crypto v0.0.0-20201221181555-eec23a3978ad // indirect
	golang.org/x/sys v0.0.0-20210423082822-04245dca01da // indirect
	google.golang.org/protobuf v1.27.1 // indirect
	kernel.org/pub/linux/libs/security/libcap/cap v1.2.55 // indirect
	kernel.org/pub/linux/libs/security/libcap/psx v1.2.55 // indirect
)
